<svg width="100" height="100" viewBox="0 0 100 100" fill="none" xmlns="http://www.w3.org/2000/svg">
<g clip-path="url(#clip0)">
<path d="M22.5807 31.992V31.4517H19.3549V31.992C19.3549 32.9162 19.3791 33.8404 19.4258 34.7597L22.6484 34.5952C22.6049 33.7291 22.5807 32.8629 22.5807 31.992Z" fill="#DDF367"/>
<path d="M22.9048 37.7195L19.7 38.0856C20.6226 46.2098 23.4548 54.1501 27.8887 61.0453L30.6016 59.3001C26.4339 52.8179 23.7742 45.355 22.9048 37.7195Z" fill="#DDF367"/>
<path d="M59.4533 15.6646C56.6597 17.5516 53.3904 18.5484 50 18.5484C46.6097 18.5484 43.342 17.5516 40.5484 15.6662L38.7436 18.3404C42.0726 20.5871 45.9646 21.7742 50 21.7742C54.0355 21.7742 57.9275 20.5871 61.2581 18.3387L59.4533 15.6646Z" fill="#DDF367"/>
<path d="M14.5161 62.0967H11.2903C11.2903 68.3209 6.22419 73.387 0 73.387V76.6128C6.22419 76.6128 11.2903 81.6789 11.2903 87.9031H14.5161C14.5161 81.6789 19.5823 76.6128 25.8064 76.6128V73.387C19.5823 73.387 14.5161 68.3209 14.5161 62.0967ZM12.9032 81.2822C11.5161 78.5886 9.31452 76.387 6.62097 74.9999C9.31452 73.6128 11.5161 71.4112 12.9032 68.7176C14.2903 71.4112 16.4919 73.6128 19.1855 74.9999C16.4919 76.387 14.2903 78.5886 12.9032 81.2822Z" fill="#DDF367"/>
<path d="M88.7096 20.1613H85.6209C82.5661 12.5629 75.0887 7.25806 66.6161 7.25806C62.6161 7.25806 58.8548 8.34031 55.7387 10.3855C52.2887 12.6564 47.7129 12.6564 44.2613 10.3855C41.1467 8.34031 37.3855 7.25806 33.3838 7.25806C22.0903 7.25806 12.9032 16.4452 12.9032 27.7387V31.9919C12.9032 43.5564 16.2096 54.8081 22.4629 64.5355C25.8274 69.7693 28.2984 75.4839 29.808 81.5193L31.5629 88.5419C32.179 91.0161 34.3903 92.7419 36.9387 92.7419C39.7048 92.7419 42.0113 90.7564 42.4193 88.021L46.0371 63.8952C46.3355 61.9193 48.0016 60.4839 50 60.4839C51.9984 60.4839 53.6645 61.9193 53.9613 63.8952L57.579 88.021C57.9887 90.7564 60.2951 92.7419 63.0613 92.7419C65.6096 92.7419 67.8209 91.0161 68.4371 88.5419L70.1935 81.5193C71.7032 75.4823 74.1758 69.7677 77.5403 64.5355C81.2161 58.8161 83.9048 52.429 85.4774 45.8C85.4758 45.8564 85.4838 45.9113 85.4838 45.9677H88.7096C88.7096 39.7435 93.7758 34.6774 100 34.6774V31.4516C93.7758 31.4516 88.7096 26.3855 88.7096 20.1613ZM74.8258 62.7903C71.2693 68.3226 68.6596 74.3613 67.0645 80.7387L65.3064 87.7613C65.05 88.7952 64.1258 89.5161 63.0613 89.5161C61.9048 89.5161 60.9419 88.6855 60.7709 87.5419L57.1532 63.4161C56.6177 59.8468 53.608 57.2581 50 57.2581C46.3919 57.2581 43.3822 59.8468 42.8467 63.4161L39.229 87.5419C39.0596 88.6855 38.0951 89.5161 36.9387 89.5161C35.8742 89.5161 34.95 88.7952 34.6903 87.7613L32.9338 80.7387C31.3403 74.3597 28.729 68.321 25.1726 62.7903C19.2564 53.5855 16.129 42.9355 16.129 31.9919V27.7387C16.129 18.2242 23.8693 10.4839 33.3838 10.4839C36.7532 10.4839 39.9016 11.3823 42.4887 13.0823C44.7484 14.5677 47.2774 15.3226 50 15.3226C52.7225 15.3226 55.2516 14.5677 57.5096 13.0823C60.0984 11.3823 63.2467 10.4839 66.6161 10.4839C75.1258 10.4839 82.4677 16.8242 83.6774 25.1032L83.7451 26.1532C81.7451 29.329 78.2161 31.4516 74.1935 31.4516V34.6774C77.9806 34.6774 81.3306 36.5581 83.379 39.4274C82.2903 47.6984 79.3354 55.7742 74.8258 62.7903ZM87.0967 39.3468C85.7096 36.6532 83.508 34.4516 80.8145 33.0645C83.508 31.6774 85.7096 29.4758 87.0967 26.7822C88.4838 29.4758 90.6855 31.6774 93.379 33.0645C90.6855 34.4516 88.4838 36.6532 87.0967 39.3468Z" fill="#DDF367"/>
</g>
    <defs>
<clipPath id="clip0">
<rect width="100" height="100" fill="white"/>
</clipPath>
</defs>
</svg>
